{
    "page": 1,
    "total_results": 322,
    "total_pages": 17,
    "results": [
        {
            "vote_count": 98,
            "id": 13006,
            "video": false,
            "vote_average": 6,
            "title": "Split Second",
            "popularity": 7.457,
            "poster_path": "/p4kPTjdNziADHuTXFNl6hLgKpCL.jpg",
            "original_language": "en",
            "original_title": "Split Second",
            "genre_ids": [
                53,
                28,
                27,
                878,
                80
            ],
            "backdrop_path": "/dUaUqJMpNivPw6JxszQNfADVQow.jpg",
            "adult": false,
            "overview": "In a futuristic London, the rising sea levels mean that large areas are under feet of water. Hauer plays a cop who previously lost his partner to some strange creature. Now the creature is back and its after him.",
            "release_date": "1992-05-01"
        },
        {
            "vote_count": 2,
            "id": 568047,
            "video": false,
            "vote_average": 7.5,
            "title": "Panic: The Untold Story of the 2008 Financial Crisis",
            "popularity": 1.962,
            "poster_path": "/vBNIwAPonhmIgYP4DfhFezMG2Ix.jpg",
            "original_language": "en",
            "original_title": "Panic: The Untold Story of the 2008 Financial Crisis",
            "genre_ids": [
                99,
                36
            ],
            "backdrop_path": null,
            "adult": false,
            "overview": "This documentary looks at the factors that led to the 2008 financial crisis and the efforts made by then Treasury Secretary Henry Paulson, Federal Reserve Bank of New York President Timothy Geithner, and Federal Reserve Chair Ben Bernanke to save the United States from an economic collapse.",
            "release_date": "2018-12-11"
        },
        {
            "vote_count": 1,
            "id": 217680,
            "video": true,
            "vote_average": 6,
            "title": "WWE Backlash 2008",
            "popularity": 1.749,
            "poster_path": "/lOP1weS5ha1kqjDFLwT1UMldoV1.jpg",
            "original_language": "en",
            "original_title": "WWE Backlash 2008",
            "genre_ids": [
                28,
                18
            ],
            "backdrop_path": "/aLggo8XcAybRj2wwD7M80oRBqkq.jpg",
            "adult": false,
            "overview": "Backlash (2008) was the tenth annual Backlash PPV. It took place on April 27, 2008 at the 1st Mariner Arena in Baltimore, Maryland. The event starred wrestlers from the Raw, SmackDown, and ECW brands.  The main event was a Fatal Four-Way Elimination for the WWE Championship match featuring WWE Champion Randy Orton, Triple H, John Cena, and John \"Bradshaw\" Layfield. The other main event featured wrestlers from the SmackDown brand, in which World Heavyweight Champion The Undertaker defended against challenger Edge in a singles match. The main event from the ECW brand was a singles match where ECW Champion Kane defended against challenger Chavo Guerrero. In addition, a featured bout was scheduled on the undercard, in which Shawn Michaels fought Batista.  Backlash (2008) had an attendance of approximately 11,277 and received 200,000 buys.",
            "release_date": "2008-04-27"
        },
        {
            "vote_count": 61,
            "id": 25329,
            "video": false,
            "vote_average": 5.4,
            "title": "The Echo",
            "popularity": 3.217,
            "poster_path": "/qgHmHhGaJsV4VElulZCzOgxcxeS.jpg",
            "original_language": "en",
            "original_title": "The Echo",
            "genre_ids": [
                27,
                53,
                18,
                9648
            ],
            "backdrop_path": "/oZNtqdcfgF3pzuourHhNNCsRAsI.jpg",
            "adult": false,
            "overview": "Bobby Reynolds is released on probation from Rikers and moves to the old apartment in East Village, New York, where his lonely mother lived and passed away. He finds a job as mechanic at the Houston Auto Repair shop owned by the supportive Hector Rodriguez and tries to rebuild his life. However, he is deemed an outcast and his former friends and neighbors do not want to talk to him. He meets his f",
            "release_date": "2008-05-25"
        },
        {
            "vote_count": 1,
            "id": 82022,
            "video": false,
            "vote_average": 8,
            "title": "Wisdom (2008)",
            "popularity": 0.6,
            "poster_path": "/6to79gWPR48iKyiBJ7c4tcbw6VM.jpg",
            "original_language": "en",
            "original_title": "Wisdom",
            "genre_ids": [],
            "backdrop_path": null,
            "adult": false,
            "overview": "Inspired by the idea that the greatest gift one generation can give to another is the wisdom it has gained from experience, 'Wisdom' seeks to create a record of a group of people over the age of 65 who have all made their mark on the world.",
            "release_date": ""
        },
        {
            "vote_count": 0,
            "id": 68938,
            "video": false,
            "vote_average": 0,
            "title": "Killergrippe 2008",
            "popularity": 0.6,
            "poster_path": "/3L13ndNTncipa39Ou7qdE7sjSy6.jpg",
            "original_language": "en",
            "original_title": "Killergrippe 2008",
            "genre_ids": [],
            "backdrop_path": null,
            "adult": false,
            "overview": "Virus H5N1 mutation takes the world by surprise and sprays over to the four corners of the globe at a dazing speed.",
            "release_date": "2007-09-29"
        },
        {
            "vote_count": 1,
            "id": 16856,
            "video": false,
            "vote_average": 9,
            "title": "Qlimax 2008",
            "popularity": 0.873,
            "poster_path": "/pnbROKq7qTFaw3IaSxzqeDSSjn2.png",
            "original_language": "en",
            "original_title": "Qlimax 2008",
            "genre_ids": [],
            "backdrop_path": "/5truTa4BfaK18UZzYLBmz0h9Gvh.jpg",
            "adult": false,
            "overview": "Qlimax is an annual hardstyle event, held at the Gelredome, in Arnhem, Netherlands. It is one of the leading events within the hardstyle community, and one of the major attractions held by Q-Dance. The Dutch edition of Qlimax is held in the third or fourth weekend of November every year.",
            "release_date": "2008-11-22"
        },
        {
            "vote_count": 2,
            "id": 72520,
            "video": false,
            "vote_average": 5.3,
            "title": "Suprême NTM Live Bercy 2008",
            "popularity": 0.903,
            "poster_path": "/9JKZSDDOxZq9MItP6JYxKWaDqWD.jpg",
            "original_language": "fr",
            "original_title": "Suprême NTM Live Bercy 2008",
            "genre_ids": [
                10402
            ],
            "backdrop_path": "/ttByse1QEBuKJePqUH4RSXsMNlY.jpg",
            "adult": false,
            "overview": "",
            "release_date": "2008-07-01"
        },
        {
            "vote_count": 1,
            "id": 218949,
            "video": true,
            "vote_average": 6,
            "title": "WWE Survivor Series 2008",
            "popularity": 1.123,
            "poster_path": "/uxw8BjcBVzoZriJHXkxOEESqDyt.jpg",
            "original_language": "en",
            "original_title": "WWE Survivor Series 2008",
            "genre_ids": [
                28,
                18
            ],
            "backdrop_path": "/nZVjgbRsAQZss98xAwK6ES8AlaJ.jpg",
            "adult": false,
            "overview": "Survivor Series (2008) was a PPV that took place on November 23, 2008 at the TD Banknorth Garden in Boston, Massachusetts, It was presented by THQ's WWE SmackDown vs. Raw 2009. The event, the 22nd Survivor Series, featured talent from WWE's all three brands, Raw, SmackDown and ECW.  The main event was for the World Heavyweight Championship between John Cena, and the champion, Chris Jericho. Another match on the event was the SmackDown main event, which saw Edge, Vladimir Kozlov, and the champion Triple H, in a Triple Threat match for the WWE Championship. The undercard matches included The Undertaker versus The Big Show in a Casket Match and three five-on-five elimination tag team matches.",
            "release_date": "2008-11-23"
        },
        {
            "vote_count": 6,
            "id": 38104,
            "video": true,
            "vote_average": 7.9,
            "title": "Diana Krall - Live in Rio",
            "popularity": 1.058,
            "poster_path": "/6vW6BjZNcGA2wmXZwh4DcIuiVFq.jpg",
            "original_language": "en",
            "original_title": "Diana Krall - Live in Rio",
            "genre_ids": [
                10402
            ],
            "backdrop_path": "/a4ci4nt1sn7y6cuLlu2RuwilmM4.jpg",
            "adult": false,
            "overview": "Diana Krall has had a long time fascination with bossa nova, a type of music which perfectly suits her sophisticated yet sensual style. This culminated in her new studio album \"Quiet Nights\" (released by Verve in spring 2009) and in this stunning concert filmed in the home of the bossa nova, Rio de Janeiro, in November 2008. Accompanied by her band and an orchestra, Diana Krall delivers a superb set of standards in true bossa nova style but clearly bearing her unique stamp. This DVD captures Diana Krall at her scintillating best.",
            "release_date": "2009-05-26"
        },
        {
            "vote_count": 2847,
            "id": 7446,
            "video": false,
            "vote_average": 6.5,
            "title": "Tropic Thunder",
            "popularity": 12.195,
            "poster_path": "/zoWUdaaWKPDyr9b0il0YcggDWgJ.jpg",
            "original_language": "en",
            "original_title": "Tropic Thunder",
            "genre_ids": [
                28,
                35
            ],
            "backdrop_path": "/pr8sj9FozsiT45TMtkwFRWONNII.jpg",
            "adult": false,
            "overview": "Vietnam veteran 'Four Leaf' Tayback's memoir, Tropic Thunder, is being made into a film, but Director Damien Cockburn can’t control the cast of prima donnas. Behind schedule and over budget, Cockburn is ordered by a studio executive to get filming back on track, or risk its cancellation. On Tayback's advice, Cockburn drops the actors into the middle of the jungle to film the remaining scenes but, unbeknownst to the actors and production, the group have been dropped in the middle of the Golden Triangle, the home of heroin-producing gangs.",
            "release_date": "2008-08-09"
        },
        {
            "vote_count": 0,
            "id": 371296,
            "video": false,
            "vote_average": 0,
            "title": "Lord Sitke 2008",
            "popularity": 0.6,
            "poster_path": "/3cyvR5XvcGzHXawCvcdbS74ZO8w.jpg",
            "original_language": "hu",
            "original_title": "Lord Sitke 2008",
            "genre_ids": [
                10402
            ],
            "backdrop_path": "/1Gb7ZuT2kerHHUug6UlLGzx0hEC.jpg",
            "adult": false,
            "overview": "",
            "release_date": "2008-08-30"
        },
        {
            "vote_count": 1,
            "id": 341565,
            "video": false,
            "vote_average": 5,
            "title": "Dream Weavers: Beijing 2008",
            "popularity": 0.6,
            "poster_path": "/t40G5Xiwsw5cuAKAKHvf5jBNw36.jpg",
            "original_language": "en",
            "original_title": "Zhu meng",
            "genre_ids": [],
            "backdrop_path": null,
            "adult": false,
            "overview": "A documentary shot over the course of five years telling five stories in the run-up to the 2008 Beijing Summer Olympics: the construction of the Bird's Nest Olympic Stadium, Gold medal hopeful &amp; Olympic hurdler Liu Xiang, the selection of the Chinese women's gymnastics team, the training of the Beijing SWAT team, and the story one of the 4000 families relocated to make room for the Olympic Athlete's Village.",
            "release_date": "2008-06-28"
        },
        {
            "vote_count": 2,
            "id": 250991,
            "video": false,
            "vote_average": 5.5,
            "title": "Ban Phi Pob 2008",
            "popularity": 0.6,
            "poster_path": "/73LbTjxaGSqLu2pKIQcfgpc46jT.jpg",
            "original_language": "en",
            "original_title": "บ้านผีปอบ 2008",
            "genre_ids": [
                35
            ],
            "backdrop_path": "/hpRzB0UcUfEVA7mq1JFvzfDitUj.jpg",
            "adult": false,
            "overview": "Klai is a resident witch doctor at an obscure village in the Thai countryside. He's been treating the villagers with traditional remedies with the reluctant help from his wife and daughter.  However, a group of doctors has come to the village and introducing modern medicine.  Klai is losing the respect and recognition from the villagers and he decides to perform a dark magic ritual invoking the phi pob undead to assist him. But things don't quite go according to plan.",
            "release_date": "2008-01-17"
        },
        {
            "vote_count": 1,
            "id": 330950,
            "video": false,
            "vote_average": 6,
            "title": "Les Parlementeries 2008",
            "popularity": 0.6,
            "poster_path": "/oKAwPH2Xb2qnGk4anxjJrxnba0e.jpg",
            "original_language": "fr",
            "original_title": "Les Parlementeries 2008",
            "genre_ids": [],
            "backdrop_path": null,
            "adult": false,
            "overview": "",
            "release_date": "2008-12-09"
        },
        {
            "vote_count": 0,
            "id": 179761,
            "video": false,
            "vote_average": 0,
            "title": "AaB - Danish Champions 2008",
            "popularity": 0.6,
            "poster_path": "/fKSqcdagZZvJviYhVSESrQ6bvHg.jpg",
            "original_language": "da",
            "original_title": "AaB - Danske Mestre 2008",
            "genre_ids": [],
            "backdrop_path": "/rsHGXcn0uQk9ZZJcSM4GziatRSx.jpg",
            "adult": false,
            "overview": "",
            "release_date": "2008-12-30"
        },
        {
            "vote_count": 1,
            "id": 95297,
            "video": false,
            "vote_average": 6,
            "title": "Wörthersee Tour 2008",
            "popularity": 0.6,
            "poster_path": "/x4FYhprbY59BQ41pxnWiS9MLcm2.jpg",
            "original_language": "de",
            "original_title": "Wörthersee Tour 2008",
            "genre_ids": [],
            "backdrop_path": null,
            "adult": false,
            "overview": "We condensed hours and hours of footage, all shot by Steven Campbell, and hand-picked 70 minutes of the best for this film, while retaining that \"uncut &amp; unedited\" feel. This film is a break away from our usual style: Unlike our usual releases, get a chance to study these cars with longer shots and less cuts.",
            "release_date": "2008-04-06"
        },
        {
            "vote_count": 0,
            "id": 578560,
            "video": true,
            "vote_average": 0,
            "title": "Lao Che - Przystanek Woodstock 2008",
            "popularity": 1.026,
            "poster_path": "/kpNbXFU6gmmihmL9RxP2XgBxZea.jpg",
            "original_language": "pl",
            "original_title": "Lao Che - Przystanek Woodstock 2008",
            "genre_ids": [
                10402
            ],
            "backdrop_path": "/fA3ocXpk14h1ybOPGq5cl0oD1HM.jpg",
            "adult": false,
            "overview": "",
            "release_date": ""
        },
        {
            "vote_count": 2,
            "id": 218941,
            "video": true,
            "vote_average": 8,
            "title": "WWE Cyber Sunday 2008",
            "popularity": 0.84,
            "poster_path": "/akNyPyzaBctEfpkMff7ojwIUrze.jpg",
            "original_language": "en",
            "original_title": "WWE Cyber Sunday 2008",
            "genre_ids": [
                28,
                18
            ],
            "backdrop_path": "/9l6OmF1MFfpTnSbLS6VNIBSRbep.jpg",
            "adult": false,
            "overview": "Cyber Sunday (2008) was the fifth and final Cyber Sunday (the third under this name) PPV. It took place on October 26, 2008 at the US Airways Center in Phoenix, Arizona. It featured wrestlers from the Raw, ECW, and SmackDown brands.  Stone Cold Steve Austin was the special guest referee as Chris Jericho defended his World Heavyweight Championship against Batista. Triple H defended the WWE Championship against Jeff Hardy in a singles match. The Big Show and The Undertaker competed in a Last Man Standing match while the Santino Marella defended his Intercontinental Championship against a fan vote between Honky Tonk Man, Roddy Piper, or Goldust. Matt Hardy defended the ECW Championship against Evan Bourne and Rey Mysterio fought Kane in a fan voted match.",
            "release_date": "2008-10-26"
        },
        {
            "vote_count": 0,
            "id": 271933,
            "video": false,
            "vote_average": 0,
            "title": "Metalmania 2008",
            "popularity": 0.6,
            "poster_path": "/hoyXyoheJnm2q6D5qYOol3MvJvb.jpg",
            "original_language": "en",
            "original_title": "Metalmania 2008",
            "genre_ids": [],
            "backdrop_path": "/mpvsDl6zy55ConZG0dMM0Zvr56r.jpg",
            "adult": false,
            "overview": "Another year, another fine DVD release from Metal Mind Productions chronicaling the annual Metalmania festival from Katowice, Poland, this one from March 8, 2008. More so packed with 'star' acts than some of the more recent years, 2008 saw such metal legends as Megadeth and Overkill mixing it up alongside second tier thrash acts Flotsam &amp; Jetsam, Artillery, and a host of strong death &amp; black metal acts such as Vader, Satyricon, Marduk, Immolation, Primordial, and Inside You. Throw in the popular Dillinger Escape Plan and you have quite the varied festival.",
            "release_date": "2009-07-06"
        }
    ]
}
